{
	"info": {
		"_postman_id": "34a45308-e633-4a2f-8bc1-7968484fbbc6",
		"name": "Newman-V1.0",
		"schema": "https://schema.getpostman.com/json/collection/v2.1.0/collection.json"
	},
	"item": [
		{
			"name": "Dev Intra OAuth Token Generation",
			"event": [
				{
					"listen": "test",
					"script": {
						"id": "bb3daff4-ac24-4c33-bbac-946dee574949",
						"exec": [
							"pm.test(\"Response time is less than 200ms\", function () {",
							"    pm.expect(pm.response.responseTime).to.be.below(200);",
							"});",
							"pm.test(\"Body matches string\", function () {",
							"    pm.expect(pm.response.text()).to.include(\"access_token\");",
							"pm.test(\"Status code is 200\", function () {",
							"    pm.response.to.have.status(200);",
							"});",
							"})"
						],
						"type": "text/javascript"
					}
				}
			],
			"request": {
				"auth": {
					"type": "basic",
					"basic": [
						{
							"key": "password",
							"value": "8835dadf-c45e-4533-9e1c-42198b1da7fe",
							"type": "string"
						},
						{
							"key": "username",
							"value": "5e309067-36d4-4e58-ada3-2e1741f2625d",
							"type": "string"
						}
					]
				},
				"method": "POST",
				"header": [],
				"body": {
					"mode": "urlencoded",
					"urlencoded": [
						{
							"key": "username",
							"value": "regadmin",
							"type": "text"
						},
						{
							"key": "password",
							"value": "changeme",
							"type": "text"
						},
						{
							"key": "grant_type",
							"value": "password",
							"type": "text"
						}
					]
				},
				"url": {
					"raw": "https://apigweu-dev.novartis.com/api/oauth/token",
					"protocol": "https",
					"host": [
						"apigweu-dev",
						"novartis",
						"com"
					],
					"path": [
						"api",
						"oauth",
						"token"
					]
				}
			},
			"response": []
		},
		{
			"name": "Dev Intra Health Check",
			"request": {
				"method": "GET",
				"header": [],
				"url": {
					"raw": ""
				}
			},
			"response": []
		}
	],
	"protocolProfileBehavior": {}
}